[

   {

      "id": 1,

      "type": "Condo",

      "price": 220000,

      "address": "213 Grove Street",

      "description": "Excellent place, really nice view",

      "details": {

         "bedrooms": 2,

         "bathrooms": 1.5,

         "area": 921

      },

      "image": "a"

   },

   {

      "id": 2,

      "type": "House",

      "price": 410500,

      "address": "7823 Rambazar Street",

      "description": "Awesome place, nice view",

      "details": {

         "bedrooms": 4,

         "bathrooms": 3,

         "area": 2145

      },

      "image": "b"

   },

   {

      "id": 3,

      "type": "Duplex",

      "price": 395000,

      "address": "834 River Lane",

      "description": "Great place to stay",

      "details": {

         "bedrooms": 5,

         "bathrooms": 3,

         "area": 3000

      },

      "image": "c"

   },

   {

      "id": 4,

      "type": "House",

      "price": 500000,

      "address": "213 harlem street",

      "description": "Great neighbours",

      "details": {

         "bedrooms": 6,

         "bathrooms": 3,

         "area": 3500

      },

      "image": "d"

   },

   {

      "id": 5,

      "type": "House",

      "price": 600000,

      "address": "2688 Great street",

      "description": "Awesoem place, Great neighbours",

      "details": {

         "bedrooms": 4,

         "bathrooms": 2,

         "area": 1500

      },

      "image": "e"

   },

   {

      "id": 6,

      "type": "Duplex",

      "price": 395000,

      "address": "834 River Lane",

      "description": "Great place to stay",

      "details": {

         "bedrooms": 5,

         "bathrooms": 3,

         "area": 3000

      },

      "image": "f"

   }

]